lobster_project
…
## # A tibble: 5 x 5
##   SITE  Mean_count Standard_deviation Sample_size Standard_error
##   <chr>      <dbl>              <dbl>       <int>          <dbl>
## 1 AQUE        1.08              1.30           62         0.165 
## 2 CARP        2.21              2.68          319         0.150 
## 3 IVEE        1.72              1.52          352         0.0808
## 4 MOHK        2                 1.89           89         0.201 
## 5 NAPL        1.03              0.659         109         0.0631

## # A tibble: 3,265 x 12
##     YEAR MONTH DATE  SITE  SBC_LTER_TRANSE LOBSTER_TRANSECT   SIZE COUNT
##    <int> <int> <chr> <chr>            <int> <chr>             <int> <int>
##  1  2012     8 20-A IVEE                 1 A                -99999     0
##  2  2012     8 20-A IVEE                 1 B                -99999     0
##  3  2012     8 20-A IVEE                 1 C                -99999     0
##  4  2012     8 20-A IVEE                 1 D                -99999     0
##  5  2012     8 20-A IVEE                 2 A                -99999     0
##  6  2012     8 20-A IVEE                 2 B                -99999     0
##  7  2012     8 20-A IVEE                 2 C                -99999     0
##  8  2012     8 20-A IVEE                 2 D                -99999     0
##  9  2012     8 20-A IVEE                 3 A                -99999     0
## 10  2012     8 20-A IVEE                 3 A                    70     1
## # ... with 3,255 more rows, and 4 more variables: Mean_count <dbl>,
## #   Standard_deviation <dbl>, Sample_size <int>, Standard_error <dbl>
…
## 
##  Two Sample t-test
## 
## data:  MOHK_COUNTS_2012$COUNT and MOHK_COUNTS_2017$COUNT
## t = -2.1215, df = 145, p-value = 0.01779
## alternative hypothesis: true difference in means is less than 0
## 95 percent confidence interval:
##        -Inf -0.1249992
## sample estimates:
## mean of x mean of y 
##  1.431034  2.000000

## # A tibble: 85 x 8
##     YEAR MONTH DATE   SITE  SBC_LTER_TRANSE LOBSTER_TRANSECT   SIZE COUNT
##    <int> <int> <chr>  <chr>            <int> <chr>             <int> <int>
##  1  2012     8 20-Au IVEE                 1 A                -99999     0
##  2  2012     8 20-Au IVEE                 1 B                -99999     0
##  3  2012     8 20-Au IVEE                 1 C                -99999     0
##  4  2012     8 20-Au IVEE                 1 D                -99999     0
##  5  2012     8 20-Au IVEE                 2 A                -99999     0
##  6  2012     8 20-Au IVEE                 2 B                -99999     0
##  7  2012     8 20-Au IVEE                 2 C                -99999     0
##  8  2012     8 20-Au IVEE                 2 D                -99999     0
##  9  2012     8 20-Au IVEE                 3 A                -99999     0
## 10  2012     8 20-Au IVEE                 3 A                    70     1
## # ... with 75 more rows

## # A tibble: 461 x 8
##     YEAR MONTH DATE    SITE  SBC_LTER_TRANSE LOBSTER_TRANSECT  SIZE COUNT
##    <int> <int> <chr>   <chr>            <int> <chr>            <int> <int>
##  1  2017     8 22-Aug IVEE                 1 A                   80     2
##  2  2017     8 22-Aug IVEE                 1 B                   65     1
##  3  2017     8 22-Aug IVEE                 1 C                   50     1
##  4  2017     8 22-Aug IVEE                 1 C                   57     1
##  5  2017     8 22-Aug IVEE                 1 C                   58     2
##  6  2017     8 22-Aug IVEE                 1 C                   60     1
##  7  2017     8 22-Aug IVEE                 1 C                   62     1
##  8  2017     8 22-Aug IVEE                 1 C                   65     1
##  9  2017     8 22-Aug IVEE                 1 C                   72     1
## 10  2017     8 22-Aug IVEE                 1 C                   75     1
## # ... with 451 more rows

## # A tibble: 199 x 8
##     YEAR MONTH DATE   SITE  SBC_LTER_TRANSE LOBSTER_TRANSECT   SIZE COUNT
##    <int> <int> <chr>  <chr>            <int> <chr>             <int> <int>
##  1  2012     8 24-Au AQUE                 1 A                -99999     0
##  2  2012     8 24-Au AQUE                 1 B                -99999     0
##  3  2012     8 24-Au AQUE                 1 C                -99999     0
##  4  2012     8 24-Au AQUE                 1 C                    55     1
##  5  2012     8 24-Au AQUE                 1 D                    58     1
##  6  2012     8 24-Au AQUE                 1 D                    63     1
##  7  2012     8 24-Au AQUE                 1 D                    70     1
##  8  2012     8 24-Au AQUE                 1 D                    75     1
##  9  2012     8 24-Au AQUE                 2 A                -99999     0
## 10  2012     8 24-Au AQUE                 2 A                    72     1
## # ... with 189 more rows

## # A tibble: 470 x 8
##     YEAR MONTH DATE   SITE  SBC_LTER_TRANSE LOBSTER_TRANSECT   SIZE COUNT
##    <int> <int> <chr>  <chr>            <int> <chr>             <int> <int>
##  1  2017     8 21-Au AQUE                 1 A                -99999     0
##  2  2017     8 21-Au AQUE                 1 B                    45     1
##  3  2017     8 21-Au AQUE                 1 B                    75     1
##  4  2017     8 21-Au AQUE                 1 C                -99999     0
##  5  2017     8 21-Au AQUE                 1 D                    50     1
##  6  2017     8 21-Au AQUE                 1 D                    60     1
##  7  2017     8 21-Au AQUE                 1 D                    75     1
##  8  2017     8 21-Au AQUE                 1 D                    80     1
##  9  2017     8 21-Au AQUE                 2 A                -99999     0
## 10  2017     8 21-Au AQUE                 2 B                -99999     0
## # ... with 460 more rows
…
#DF traps in 2012
traps_2012 <- traps %>%
  filter(YEAR == "2012") %>% 
  filter(SITE != "ABUR", SITE != "GOLB", SITE != "AHND", SITE != "AHND to AQUE", SITE != "IVEE", SITE != "NAPL")
traps_2012

## # A tibble: 270 x 10
##     YEAR MONTH DATE  FISHING_SEASON SITE  SWATH_START SWATH_END TRAPS
##    <int> <int> <chr> <chr>          <chr> <chr>       <chr>     <int>
##  1  2012    10 10/5 2012-2013      CARP  119 31.850  119 31.8     4
##  2  2012    10 10/5 2012-2013      CARP  119 31.900  119 31.8    14
##  3  2012    10 10/5 2012-2013      CARP  119 31.950  119 31.9    10
##  4  2012    10 10/5 2012-2013      CARP  119 32.000  119 31.9     7
##  5  2012    10 10/5 2012-2013      CARP  119 32.050  119 32.0    11
##  6  2012    10 10/5 2012-2013      CARP  119 32.100  119 32.0    12
##  7  2012    10 10/5 2012-2013      CARP  119 32.150  119 32.1    12
##  8  2012    10 10/5 2012-2013      CARP  119 32.200  119 32.1     2
##  9  2012    10 10/5 2012-2013      CARP  119 32.250  119 32.2    13
## 10  2012    10 10/5 2012-2013      CARP  119 32.300  119 32.2     5
## # ... with 260 more rows, and 2 more variables: OBSERVER <int>,
## #   NOTES <chr>

#DF traps in 2017
traps_2017 <- traps %>%
  filter(YEAR == "2017") %>% 
  filter(SITE != "ABUR", SITE != "GOLB", SITE != "AHND", SITE != "AHND to AQUE", SITE != "IVEE", SITE != "NAPL") 
traps_2017

## # A tibble: 168 x 10
##     YEAR MONTH DATE  FISHING_SEASON SITE  SWATH_START SWATH_END TRAPS
##    <int> <int> <chr> <chr>          <chr> <chr>       <chr>     <int>
##  1  2017     1 1/5/ 2016-2017      CARP  119 31.850  119 31.8     0
##  2  2017     1 1/5/ 2016-2017      CARP  119 31.900  119 31.8     0
##  3  2017     1 1/5/ 2016-2017      CARP  119 31.950  119 31.9     0
##  4  2017     1 1/5/ 2016-2017      CARP  119 32.000  119 31.9     1
##  5  2017     1 1/5/ 2016-2017      CARP  119 32.050  119 32.0     5
##  6  2017     1 1/5/ 2016-2017      CARP  119 32.100  119 32.0     1
##  7  2017     1 1/5/ 2016-2017      CARP  119 32.150  119 32.1     3
##  8  2017     1 1/5/ 2016-2017      CARP  119 32.200  119 32.1     6
##  9  2017     1 1/5/ 2016-2017      CARP  119 32.250  119 32.2     2
## 10  2017     1 1/5/ 2016-2017      CARP  119 32.300  119 32.2     2
## # ... with 158 more rows, and 2 more variables: OBSERVER <int>,
## #   NOTES <chr>
…
# Create a summary table for traps at each site
traps_sum <- traps %>%
  mutate(Mean_traps= mean(TRAPS),
         Standard_deviation= sd(TRAPS), 
         Sample_size= length(TRAPS), 
         Standard_error= Standard_deviation/sqrt(Sample_size))
traps_sum

## # A tibble: 5,741 x 14
##     YEAR MONTH DATE  FISHING_SEASON SITE  SWATH_START SWATH_END TRAPS
##    <int> <int> <chr> <chr>          <chr> <chr>       <chr>     <int>
##  1  2012    10 10/5 2012-2013      CARP  119 31.850  119 31.8     4
##  2  2012    10 10/5 2012-2013      CARP  119 31.900  119 31.8    14
##  3  2012    10 10/5 2012-2013      CARP  119 31.950  119 31.9    10
##  4  2012    10 10/5 2012-2013      CARP  119 32.000  119 31.9     7
##  5  2012    10 10/5 2012-2013      CARP  119 32.050  119 32.0    11
##  6  2012    10 10/5 2012-2013      CARP  119 32.100  119 32.0    12
##  7  2012    10 10/5 2012-2013      CARP  119 32.150  119 32.1    12
##  8  2012    10 10/5 2012-2013      CARP  119 32.200  119 32.1     2
##  9  2012    10 10/5 2012-2013      CARP  119 32.250  119 32.2    13
## 10  2012    10 10/5 2012-2013      CARP  119 32.300  119 32.2     5
## # ... with 5,731 more rows, and 6 more variables: OBSERVER <int>,
## #   NOTES <chr>, Mean_traps <dbl>, Standard_deviation <dbl>,
## #   Sample_size <int>, Standard_error <dbl>
…
